{
  "sourceDefinitionId": "213d69b9-da66-419e-af29-c23142d4af5f",
  "documentationUrl": "https://docs.airbyte.com/integrations/sources/ringcentral",
  "connectionSpecification": {
    "type": "object",
    "title": "RingCentral Spec",
    "$schema": "http://json-schema.org/draft-07/schema#",
    "required": [
      "auth_token",
      "account_id",
      "extension_id"
    ],
    "properties": {
      "account_id": {
        "type": "string",
        "title": "Account Id",
        "description": "Could be seen at response to basic api call to an endpoint with ~ operator.  Example- (https://platform.devtest.ringcentral.com/restapi/v1.0/account/~/extension/~/business-hours)\n",
        "airbyte_secret": true
      },
      "auth_token": {
        "type": "string",
        "title": "Auth Token",
        "description": "Token could be recieved by following instructions at https://developers.ringcentral.com/api-reference/authentication",
        "airbyte_secret": true
      },
      "extension_id": {
        "type": "string",
        "title": "Extension Id",
        "description": "Could be seen at response to basic api call to an endpoint with ~ operator.  Example- (https://platform.devtest.ringcentral.com/restapi/v1.0/account/~/extension/~/business-hours)\n",
        "airbyte_secret": true
      }
    },
    "additionalProperties": true
  },
  "jobInfo": {
    "id": "f78276f5-8d46-4f6d-bd53-5dcd18b26d3e",
    "configType": "get_spec",
    "configId": "Optional.empty",
    "createdAt": 1705523887093,
    "endedAt": 1705523887093,
    "succeeded": true,
    "connectorConfigurationUpdated": false,
    "logs": {
      "logLines": []
    }
  }
}