{
  "sourceDefinitionId": "87c58f70-6f7a-4f70-aba5-bab1a458f5ba",
  "documentationUrl": "https://docsurl.com",
  "connectionSpecification": {
    "type": "object",
    "title": "Wikipedia Pageviews Spec",
    "$schema": "http://json-schema.org/draft-07/schema#",
    "required": [
      "project",
      "access",
      "agent",
      "article",
      "start",
      "end",
      "country"
    ],
    "properties": {
      "end": {
        "type": "string",
        "title": "End",
        "description": "The date of the last day to include, in YYYYMMDD or YYYYMMDDHH format."
      },
      "agent": {
        "type": "string",
        "title": "Agent",
        "examples": [
          "all-agents",
          "user",
          "spider",
          "automated"
        ],
        "description": "If you want to filter by agent type, use one of user, automated or spider. If you are interested in pageviews regardless of agent type, use all-agents."
      },
      "start": {
        "type": "string",
        "title": "Start",
        "description": "The date of the first day to include, in YYYYMMDD or YYYYMMDDHH format."
      },
      "access": {
        "type": "string",
        "title": "Access",
        "examples": [
          "all-access",
          "desktop",
          "mobile-app",
          "mobile-web"
        ],
        "description": "If you want to filter by access method, use one of desktop, mobile-app or mobile-web. If you are interested in pageviews regardless of access method, use all-access."
      },
      "article": {
        "type": "string",
        "title": "Article",
        "examples": [
          "Are_You_the_One%3F"
        ],
        "description": "The title of any article in the specified project. Any spaces should be replaced with underscores. It also should be URI-encoded, so that non-URI-safe characters like %, / or ? are accepted."
      },
      "country": {
        "type": "string",
        "title": "Country",
        "examples": [
          "FR",
          "IN"
        ],
        "description": "The ISO 3166-1 alpha-2 code of a country for which to retrieve top articles."
      },
      "project": {
        "type": "string",
        "title": "Project",
        "examples": [
          "en.wikipedia.org",
          "www.mediawiki.org",
          "commons.wikimedia.org"
        ],
        "description": "If you want to filter by project, use the domain of any Wikimedia project."
      }
    },
    "additionalProperties": true
  },
  "jobInfo": {
    "id": "e1e4a6e0-bb95-4b0c-a3b7-bd14d57e3153",
    "configType": "get_spec",
    "configId": "Optional.empty",
    "createdAt": 1705523883482,
    "endedAt": 1705523883482,
    "succeeded": true,
    "connectorConfigurationUpdated": false,
    "logs": {
      "logLines": []
    }
  }
}