{
  "sourceDefinitionId": "cde75ca1-1e28-4a0f-85bb-90c546de9f1f",
  "documentationUrl": "https://docsurl.com",
  "connectionSpecification": {
    "type": "object",
    "title": "Postmarkapp Spec",
    "$schema": "http://json-schema.org/draft-07/schema#",
    "required": [
      "X-Postmark-Server-Token",
      "X-Postmark-Account-Token"
    ],
    "properties": {
      "X-Postmark-Server-Token": {
        "type": "string",
        "title": "X-Postmark-Server-Token",
        "description": "API Key for server",
        "airbyte_secret": true
      },
      "X-Postmark-Account-Token": {
        "type": "string",
        "title": "X-Postmark-Account-Token",
        "description": "API Key for account",
        "airbyte_secret": true
      }
    },
    "additionalProperties": true
  },
  "jobInfo": {
    "id": "b2ba1940-18f4-4f39-8672-0bdacf8f6c2c",
    "configType": "get_spec",
    "configId": "Optional.empty",
    "createdAt": 1705523892652,
    "endedAt": 1705523892652,
    "succeeded": true,
    "connectorConfigurationUpdated": false,
    "logs": {
      "logLines": []
    }
  }
}