{
  "sourceDefinitionId": "cdaf146a-9b75-49fd-9dd2-9d64a0bb4781",
  "documentationUrl": "https://docs.airbyte.com/integrations/sources/sentry",
  "connectionSpecification": {
    "type": "object",
    "title": "Sentry Spec",
    "$schema": "http://json-schema.org/draft-07/schema#",
    "required": [
      "auth_token",
      "organization",
      "project"
    ],
    "properties": {
      "project": {
        "type": "string",
        "title": "Project",
        "description": "The name (slug) of the Project you want to sync."
      },
      "hostname": {
        "type": "string",
        "title": "Host Name",
        "default": "sentry.io",
        "description": "Host name of Sentry API server.For self-hosted, specify your host name here. Otherwise, leave it empty."
      },
      "auth_token": {
        "type": "string",
        "title": "Authentication Tokens",
        "description": "Log into Sentry and then <a href=\"https://sentry.io/settings/account/api/auth-tokens/\">create authentication tokens</a>.For self-hosted, you can find or create authentication tokens by visiting \"{instance_url_prefix}/settings/account/api/auth-tokens/\"",
        "airbyte_secret": true
      },
      "organization": {
        "type": "string",
        "title": "Organization",
        "description": "The slug of the organization the groups belong to."
      },
      "discover_fields": {
        "item": "string",
        "type": "array",
        "title": "Discover Event Fields",
        "description": "Fields to retrieve when fetching discover events"
      }
    },
    "additionalProperties": true
  },
  "jobInfo": {
    "id": "ccd8530b-58d8-4f82-b2fb-4efddab13d9e",
    "configType": "get_spec",
    "configId": "Optional.empty",
    "createdAt": 1705523896644,
    "endedAt": 1705523896644,
    "succeeded": true,
    "connectorConfigurationUpdated": false,
    "logs": {
      "logLines": []
    }
  }
}