{
  "sourceDefinitionId": "27f910fd-f832-4b2e-bcfd-6ab342e434d8",
  "documentationUrl": "https://docs.airbyte.com/integrations/sources/coda",
  "connectionSpecification": {
    "type": "object",
    "title": "Required attributes for hitting apis",
    "$schema": "http://json-schema.org/draft-07/schema#",
    "required": [
      "auth_token"
    ],
    "properties": {
      "auth_token": {
        "type": "string",
        "order": 0,
        "title": "Authentication token",
        "description": "Bearer token",
        "airbyte_secret": true
      }
    },
    "additionalProperties": true
  },
  "jobInfo": {
    "id": "4c9e9628-0dfc-4242-95e7-b34e87e0f18d",
    "configType": "get_spec",
    "configId": "Optional.empty",
    "createdAt": 1705523876662,
    "endedAt": 1705523876662,
    "succeeded": true,
    "connectorConfigurationUpdated": false,
    "logs": {
      "logLines": []
    }
  }
}