{
  "sourceDefinitionId": "e87ffa8e-a3b5-f69c-9076-6011339de1f6",
  "documentationUrl": "https://docs.airbyte.com/integrations/destinations/redshift",
  "connectionSpecification": {
    "type": "object",
    "title": "Redshift Source Spec",
    "$schema": "http://json-schema.org/draft-07/schema#",
    "required": [
      "host",
      "port",
      "database",
      "username",
      "password"
    ],
    "properties": {
      "host": {
        "type": "string",
        "order": 1,
        "title": "Host",
        "description": "Host Endpoint of the Redshift Cluster (must include the cluster-id, region and end with .redshift.amazonaws.com)."
      },
      "port": {
        "type": "integer",
        "order": 2,
        "title": "Port",
        "default": 5439,
        "maximum": 65536,
        "minimum": 0,
        "examples": [
          "5439"
        ],
        "description": "Port of the database."
      },
      "schemas": {
        "type": "array",
        "items": {
          "type": "string"
        },
        "order": 4,
        "title": "Schemas",
        "examples": [
          "public"
        ],
        "minItems": 0,
        "description": "The list of schemas to sync from. Specify one or more explicitly or keep empty to process all schemas. Schema names are case sensitive.",
        "uniqueItems": true
      },
      "database": {
        "type": "string",
        "order": 3,
        "title": "Database",
        "examples": [
          "master"
        ],
        "description": "Name of the database."
      },
      "password": {
        "type": "string",
        "order": 6,
        "title": "Password",
        "description": "Password associated with the username.",
        "airbyte_secret": true
      },
      "username": {
        "type": "string",
        "order": 5,
        "title": "Username",
        "description": "Username to use to access the database."
      },
      "jdbc_url_params": {
        "type": "string",
        "order": 7,
        "title": "JDBC URL Params",
        "description": "Additional properties to pass to the JDBC URL string when connecting to the database formatted as 'key=value' pairs separated by the symbol '&'. (example: key1=value1&key2=value2&key3=value3)."
      }
    }
  },
  "jobInfo": {
    "id": "9f45aafb-9481-4070-b28f-76ed1aff1879",
    "configType": "get_spec",
    "configId": "Optional.empty",
    "createdAt": 1705523889482,
    "endedAt": 1705523889482,
    "succeeded": true,
    "connectorConfigurationUpdated": false,
    "logs": {
      "logLines": []
    }
  }
}