{
  "sourceDefinitionId": "983fd355-6bf3-4709-91b5-37afa391eeb6",
  "documentationUrl": "https://docs.airbyte.io/integrations/sources/amazon-sqs",
  "connectionSpecification": {
    "type": "object",
    "title": "Amazon SQS Source Spec",
    "$schema": "http://json-schema.org/draft-07/schema#",
    "required": [
      "queue_url",
      "region",
      "delete_messages"
    ],
    "properties": {
      "region": {
        "enum": [
          "us-east-1",
          "us-east-2",
          "us-west-1",
          "us-west-2",
          "af-south-1",
          "ap-east-1",
          "ap-south-1",
          "ap-northeast-1",
          "ap-northeast-2",
          "ap-northeast-3",
          "ap-southeast-1",
          "ap-southeast-2",
          "ca-central-1",
          "cn-north-1",
          "cn-northwest-1",
          "eu-central-1",
          "eu-north-1",
          "eu-south-1",
          "eu-west-1",
          "eu-west-2",
          "eu-west-3",
          "sa-east-1",
          "me-south-1",
          "us-gov-east-1",
          "us-gov-west-1"
        ],
        "type": "string",
        "order": 1,
        "title": "AWS Region",
        "description": "AWS Region of the SQS Queue"
      },
      "queue_url": {
        "type": "string",
        "order": 0,
        "title": "Queue URL",
        "examples": [
          "https://sqs.eu-west-1.amazonaws.com/1234567890/my-example-queue"
        ],
        "description": "URL of the SQS Queue"
      },
      "access_key": {
        "type": "string",
        "order": 7,
        "title": "AWS IAM Access Key ID",
        "examples": [
          "xxxxxHRNxxx3TBxxxxxx"
        ],
        "description": "The Access Key ID of the AWS IAM Role to use for pulling messages",
        "airbyte_secret": true
      },
      "secret_key": {
        "type": "string",
        "order": 8,
        "title": "AWS IAM Secret Key",
        "examples": [
          "hu+qE5exxxxT6o/ZrKsxxxxxxBhxxXLexxxxxVKz"
        ],
        "description": "The Secret Key of the AWS IAM Role to use for pulling messages",
        "airbyte_secret": true
      },
      "max_wait_time": {
        "type": "integer",
        "order": 4,
        "title": "Max Wait Time",
        "examples": [
          "5"
        ],
        "description": "Max amount of time in seconds to wait for messages in a single poll (20 max)"
      },
      "max_batch_size": {
        "type": "integer",
        "order": 3,
        "title": "Max Batch Size",
        "examples": [
          "5"
        ],
        "description": "Max amount of messages to get in one batch (10 max)"
      },
      "delete_messages": {
        "type": "boolean",
        "order": 2,
        "title": "Delete Messages After Read",
        "default": false,
        "description": "If Enabled, messages will be deleted from the SQS Queue after being read. If Disabled, messages are left in the queue and can be read more than once. WARNING: Enabling this option can result in data loss in cases of failure, use with caution, see documentation for more detail. "
      },
      "visibility_timeout": {
        "type": "integer",
        "order": 6,
        "title": "Message Visibility Timeout",
        "examples": [
          "15"
        ],
        "description": "Modify the Visibility Timeout of the individual message from the Queue's default (seconds)."
      },
      "attributes_to_return": {
        "type": "string",
        "order": 5,
        "title": "Message Attributes To Return",
        "examples": [
          "attr1,attr2"
        ],
        "description": "Comma separated list of Mesage Attribute names to return"
      }
    },
    "additionalProperties": false
  },
  "jobInfo": {
    "id": "6c823d72-7b5b-4588-b1f6-f7c1714e1efb",
    "configType": "get_spec",
    "configId": "Optional.empty",
    "createdAt": 1705523879693,
    "endedAt": 1705523879693,
    "succeeded": true,
    "connectorConfigurationUpdated": false,
    "logs": {
      "logLines": []
    }
  }
}