{
  "sourceDefinitionId": "ef580275-d9a9-48bb-af5e-db0f5855be04",
  "documentationUrl": "https://docs.airbyte.io/integrations/sources/webflow",
  "connectionSpecification": {
    "type": "object",
    "title": "Webflow Spec",
    "$schema": "http://json-schema.org/draft-07/schema#",
    "required": [
      "api_key",
      "site_id"
    ],
    "properties": {
      "api_key": {
        "type": "string",
        "order": 1,
        "title": "API token",
        "example": "a very long hex sequence",
        "description": "The API token for authenticating to Webflow. See https://university.webflow.com/lesson/intro-to-the-webflow-api",
        "airbyte_secret": true
      },
      "site_id": {
        "type": "string",
        "order": 0,
        "title": "Site id",
        "example": "a relatively long hex sequence",
        "description": "The id of the Webflow site you are requesting data from. See https://developers.webflow.com/#sites"
      }
    },
    "additionalProperties": false
  },
  "jobInfo": {
    "id": "566d19b8-e1ca-44c9-b506-dcd5523e2980",
    "configType": "get_spec",
    "configId": "Optional.empty",
    "createdAt": 1705523880005,
    "endedAt": 1705523880005,
    "succeeded": true,
    "connectorConfigurationUpdated": false,
    "logs": {
      "logLines": []
    }
  }
}