{
  "sourceDefinitionId": "547dc08e-ab51-421d-953b-8f3745201a8c",
  "documentationUrl": "https://docsurl.com",
  "connectionSpecification": {
    "type": "object",
    "title": "Kyriba Spec",
    "$schema": "http://json-schema.org/draft-07/schema#",
    "required": [
      "domain",
      "username",
      "password",
      "start_date"
    ],
    "properties": {
      "domain": {
        "type": "string",
        "title": "Domain",
        "pattern": "^[a-zA-Z0-9._-]*\\.[a-zA-Z0-9._-]*\\.[a-z]*",
        "examples": [
          "demo.kyriba.com"
        ],
        "description": "Kyriba domain"
      },
      "end_date": {
        "type": "string",
        "title": "End Date",
        "pattern": "^(?:(\\d{4}\\-(0[1-9]|1[012])\\-(0[1-9]|[12][0-9]|3[01]))|)$",
        "examples": [
          "2022-03-01"
        ],
        "description": "The date the sync should end. If let empty the sync will run to the current date."
      },
      "password": {
        "type": "string",
        "title": "Password",
        "description": "Password to be used in basic auth",
        "airbyte_secret": true
      },
      "username": {
        "type": "string",
        "title": "Username",
        "description": "Username to be used in basic auth"
      },
      "start_date": {
        "type": "string",
        "title": "Start Date",
        "pattern": "^\\d{4}\\-(0[1-9]|1[012])\\-(0[1-9]|[12][0-9]|3[01])$",
        "examples": [
          "2021-01-10"
        ],
        "description": "The date the sync should start from."
      }
    },
    "additionalProperties": false
  },
  "jobInfo": {
    "id": "e8cd4d64-5787-465b-90d5-2bd4aebec286",
    "configType": "get_spec",
    "configId": "Optional.empty",
    "createdAt": 1705523888375,
    "endedAt": 1705523888375,
    "succeeded": true,
    "connectorConfigurationUpdated": false,
    "logs": {
      "logLines": []
    }
  }
}