{
  "sourceDefinitionId": "2af123bf-0aaf-4e0d-9784-cb497f23741a",
  "documentationUrl": "https://docs.airbyte.io/integrations/sources/appstore",
  "connectionSpecification": {
    "type": "object",
    "title": "Source Appstore Singer Spec",
    "$schema": "http://json-schema.org/draft-07/schema#",
    "required": [
      "key_id",
      "private_key",
      "issuer_id",
      "vendor",
      "start_date"
    ],
    "properties": {
      "key_id": {
        "type": "string",
        "title": "Key ID",
        "description": "Appstore Key ID. See the <a href=\"https://docs.airbyte.io/integrations/sources/appstore\">docs</a> for more information on how to obtain this key."
      },
      "vendor": {
        "type": "string",
        "title": "Vendor ID",
        "description": "Appstore Vendor ID. See the <a href=\"https://docs.airbyte.io/integrations/sources/appstore\">docs</a> for more information on how to obtain this ID."
      },
      "issuer_id": {
        "type": "string",
        "title": "Issuer ID",
        "description": "Appstore Issuer ID. See the <a href=\"https://docs.airbyte.io/integrations/sources/appstore\">docs</a> for more information on how to obtain this ID."
      },
      "start_date": {
        "type": "string",
        "title": "Start Date",
        "pattern": "^[0-9]{4}-[0-9]{2}-[0-9]{2}T[0-9]{2}:[0-9]{2}:[0-9]{2}Z$",
        "examples": [
          "2020-11-16T00:00:00Z"
        ],
        "description": "UTC date and time in the format 2017-01-25T00:00:00Z. Any data before this date will not be replicated."
      },
      "private_key": {
        "type": "string",
        "title": "Private Key",
        "multiline": true,
        "description": "Appstore Private Key. See the <a href=\"https://docs.airbyte.io/integrations/sources/appstore\">docs</a> for more information on how to obtain this key.",
        "airbyte_secret": true
      }
    },
    "additionalProperties": false
  },
  "jobInfo": {
    "id": "f8b209c8-2ac4-4cec-9ade-917851934b98",
    "configType": "get_spec",
    "configId": "Optional.empty",
    "createdAt": 1705523888938,
    "endedAt": 1705523888938,
    "succeeded": true,
    "connectorConfigurationUpdated": false,
    "logs": {
      "logLines": []
    }
  }
}