{
  "sourceDefinitionId": "2e88fa20-a2f6-43cc-bba6-98a0a3f244fb",
  "documentationUrl": "https://docs.airbyte.com/integrations/sources/sendinblue",
  "connectionSpecification": {
    "type": "object",
    "title": "Sendinblue Spec",
    "$schema": "http://json-schema.org/draft-07/schema#",
    "required": [
      "api_key"
    ],
    "properties": {
      "api_key": {
        "type": "string",
        "title": "API Key",
        "description": "Your API Key. See <a href=\"https://developers.sendinblue.com/docs/getting-started\">here</a>.",
        "airbyte_secret": true
      }
    },
    "additionalProperties": true
  },
  "jobInfo": {
    "id": "c58d633f-9b73-4625-9332-4ad0b1a46fa6",
    "configType": "get_spec",
    "configId": "Optional.empty",
    "createdAt": 1705523891320,
    "endedAt": 1705523891320,
    "succeeded": true,
    "connectorConfigurationUpdated": false,
    "logs": {
      "logLines": []
    }
  }
}