{
  "sourceDefinitionId": "f39208dc-7e1c-48b8-919b-5006360cc27f",
  "name": "Commcare",
  "dockerRepository": "airbyte/source-commcare",
  "dockerImageTag": "0.1.0",
  "documentationUrl": "https://docs.airbyte.com/integrations/sources/commcare",
  "protocolVersion": "0.2.0",
  "custom": false,
  "supportLevel": "community",
  "releaseStage": "alpha",
  "sourceType": "api"
}