{
  "sourceDefinitionId": "9220e3de-3b60-4bb2-a46f-046d59ea235a",
  "documentationUrl": "https://docs.airbyte.io/integrations/sources/microsoft-dataverse",
  "connectionSpecification": {
    "type": "object",
    "title": "Microsoft Dataverse Spec",
    "$schema": "http://json-schema.org/draft-07/schema#",
    "required": [
      "url",
      "tenant_id",
      "client_id",
      "client_secret_value"
    ],
    "properties": {
      "url": {
        "type": "string",
        "order": 0,
        "title": "URL",
        "examples": [
          "https://<org-id>.crm.dynamics.com"
        ],
        "description": "URL to Microsoft Dataverse API"
      },
      "client_id": {
        "type": "string",
        "order": 2,
        "title": "Client Id",
        "description": "App Registration Client Id",
        "airbyte_secret": true
      },
      "tenant_id": {
        "type": "string",
        "order": 1,
        "title": "Tenant Id",
        "description": "Tenant Id of your Microsoft Dataverse Instance",
        "airbyte_secret": true
      },
      "odata_maxpagesize": {
        "type": "integer",
        "order": 4,
        "title": "Max page size",
        "default": 5000,
        "description": "Max number of results per page. Default=5000"
      },
      "client_secret_value": {
        "type": "string",
        "order": 3,
        "title": "Client Secret",
        "description": "App Registration Client Secret",
        "airbyte_secret": true
      }
    },
    "additionalProperties": true
  },
  "jobInfo": {
    "id": "6e697082-1250-4a92-95d9-aa1eaeeb0486",
    "configType": "get_spec",
    "configId": "Optional.empty",
    "createdAt": 1705523888685,
    "endedAt": 1705523888685,
    "succeeded": true,
    "connectorConfigurationUpdated": false,
    "logs": {
      "logLines": []
    }
  }
}