{
  "sourceDefinitionId": "311a7a27-3fb5-4f7e-8265-5e4afe258b66",
  "name": "ClickUp",
  "dockerRepository": "airbyte/source-clickup-api",
  "dockerImageTag": "0.1.1",
  "documentationUrl": "https://docs.airbyte.com/integrations/sources/clickup-api",
  "icon": "<svg xmlns=\"http://www.w3.org/2000/svg\" width=\"250\" height=\"250\" fill=\"none\"><g clip-path=\"url(#a)\"><path fill=\"url(#b)\" d=\"m38.535 181.366 31.957-24.709c16.978 22.366 35.017 32.675 55.096 32.675 19.971 0 37.5-10.187 53.713-32.377l32.414 24.113c-23.394 31.998-52.465 48.904-86.127 48.904-33.554 0-62.907-16.798-87.053-48.606Z\"/><path fill=\"url(#c)\" d=\"m125.482 73.964-56.88 49.473-26.294-30.778 83.295-72.449 82.637 72.503-26.414 30.67-56.344-49.419Z\"/></g><defs><linearGradient id=\"b\" x1=\"38.535\" x2=\"211.715\" y1=\"206.518\" y2=\"206.518\" gradientUnits=\"userSpaceOnUse\"><stop stop-color=\"#8930FD\"/><stop offset=\"1\" stop-color=\"#49CCF9\"/></linearGradient><linearGradient id=\"c\" x1=\"42.308\" x2=\"208.24\" y1=\"90.415\" y2=\"90.415\" gradientUnits=\"userSpaceOnUse\"><stop stop-color=\"#FF02F0\"/><stop offset=\"1\" stop-color=\"#FFC800\"/></linearGradient><clipPath id=\"a\"><path fill=\"#fff\" d=\"M38 20h174v210H38z\"/></clipPath></defs></svg>",
  "protocolVersion": "0.2.0",
  "custom": false,
  "supportLevel": "community",
  "releaseStage": "alpha",
  "sourceType": "api"
}