{
  "sourceDefinitionId": "6fd1e833-dd6e-45ec-a727-ab917c5be892",
  "documentationUrl": "https://docs.airbyte.io/integrations/sources/xero",
  "connectionSpecification": {
    "type": "object",
    "title": "Xero Spec",
    "$schema": "http://json-schema.org/draft-07/schema#",
    "required": [
      "authentication",
      "tenant_id",
      "start_date"
    ],
    "properties": {
      "tenant_id": {
        "type": "string",
        "order": 1,
        "title": "Tenant ID",
        "description": "Enter your Xero organization's Tenant ID",
        "airbyte_secret": true
      },
      "start_date": {
        "type": "string",
        "order": 2,
        "title": "Start Date",
        "format": "date-time",
        "pattern": "^[0-9]{4}-[0-9]{2}-[0-9]{2}T[0-9]{2}:[0-9]{2}:[0-9]{2}Z$",
        "examples": [
          "2022-03-01T00:00:00Z"
        ],
        "description": "UTC date and time in the format YYYY-MM-DDTHH:mm:ssZ. Any data with created_at before this data will not be synced."
      },
      "authentication": {
        "type": "object",
        "order": 0,
        "title": "Authenticate via Xero (OAuth)",
        "required": [
          "client_id",
          "client_secret",
          "refresh_token",
          "access_token",
          "token_expiry_date"
        ],
        "properties": {
          "client_id": {
            "type": "string",
            "title": "Client ID",
            "description": "Enter your Xero application's Client ID"
          },
          "access_token": {
            "type": "string",
            "title": "Access Token",
            "description": "Enter your Xero application's access token",
            "airbyte_secret": true
          },
          "client_secret": {
            "type": "string",
            "title": "Client Secret",
            "description": "Enter your Xero application's Client Secret",
            "airbyte_secret": true
          },
          "refresh_token": {
            "type": "string",
            "title": "Refresh Token",
            "description": "Enter your Xero application's refresh token",
            "airbyte_secret": true
          },
          "token_expiry_date": {
            "type": "string",
            "description": "The date-time when the access token should be refreshed"
          }
        }
      }
    },
    "additionalProperties": true
  },
  "advancedAuth": {
    "authFlowType": "oauth2.0",
    "predicateKey": [],
    "oauthConfigSpecification": {
      "completeOAuthOutputSpecification": {
        "type": "object",
        "properties": {
          "access_token": {
            "type": "string",
            "path_in_connector_config": [
              "authentication",
              "access_token"
            ]
          },
          "refresh_token": {
            "type": "string",
            "path_in_connector_config": [
              "authentication",
              "refresh_token"
            ]
          },
          "token_expiry_date": {
            "type": "string",
            "format": "date-time",
            "path_in_connector_config": [
              "authentication",
              "token_expiry_date"
            ]
          }
        },
        "additionalProperties": false
      },
      "completeOAuthServerInputSpecification": {
        "type": "object",
        "properties": {
          "client_id": {
            "type": "string"
          },
          "client_secret": {
            "type": "string"
          }
        },
        "additionalProperties": false
      },
      "completeOAuthServerOutputSpecification": {
        "type": "object",
        "properties": {
          "client_id": {
            "type": "string",
            "path_in_connector_config": [
              "authentication",
              "client_id"
            ]
          },
          "client_secret": {
            "type": "string",
            "path_in_connector_config": [
              "authentication",
              "client_secret"
            ]
          }
        },
        "additionalProperties": false
      }
    }
  },
  "jobInfo": {
    "id": "405a32e0-0f9e-4c6a-9170-91aaddd49620",
    "configType": "get_spec",
    "configId": "Optional.empty",
    "createdAt": 1705523896398,
    "endedAt": 1705523896398,
    "succeeded": true,
    "connectorConfigurationUpdated": false,
    "logs": {
      "logLines": []
    }
  }
}