{
  "sourceDefinitionId": "47f17145-fe20-4ef5-a548-e29b048adf84",
  "documentationUrl": "https://docs.airbyte.com/integrations/sources/apify-dataset",
  "connectionSpecification": {
    "type": "object",
    "title": "Apify Dataset Spec",
    "$schema": "http://json-schema.org/draft-07/schema#",
    "required": [
      "token",
      "dataset_id"
    ],
    "properties": {
      "token": {
        "type": "string",
        "title": "API token",
        "examples": [
          "apify_api_PbVwb1cBbuvbfg2jRmAIHZKgx3NQyfEMG7uk"
        ],
        "description": "Personal API token of your Apify account. In Apify Console, you can find your API token in the <a href=\"https://console.apify.com/account/integrations\">Settings section under the Integrations tab</a> after you login. See the <a href=\"https://docs.apify.com/platform/integrations/api#api-token\">Apify Docs</a> for more information.",
        "airbyte_secret": true
      },
      "dataset_id": {
        "type": "string",
        "title": "Dataset ID",
        "examples": [
          "rHuMdwm6xCFt6WiGU"
        ],
        "description": "ID of the dataset you would like to load to Airbyte. In Apify Console, you can view your datasets in the <a href=\"https://console.apify.com/storage/datasets\">Storage section under the Datasets tab</a> after you login. See the <a href=\"https://docs.apify.com/platform/storage/dataset\">Apify Docs</a> for more information."
      }
    },
    "additionalProperties": true
  },
  "jobInfo": {
    "id": "414d9dcd-f977-4907-837d-96ee8419c2d5",
    "configType": "get_spec",
    "configId": "Optional.empty",
    "createdAt": 1705523878138,
    "endedAt": 1705523878138,
    "succeeded": true,
    "connectorConfigurationUpdated": false,
    "logs": {
      "logLines": []
    }
  }
}