{
  "sourceDefinitionId": "0da3b186-8879-4e94-8738-55b48762f1e8",
  "connectionSpecification": {
    "type": "object",
    "title": "Gainsight Px Spec",
    "$schema": "http://json-schema.org/draft-07/schema#",
    "required": [
      "api_key"
    ],
    "properties": {
      "api_key": {
        "type": "string",
        "title": "API Key",
        "description": "The Aptrinsic API Key which is recieved from the dashboard settings (ref - https://app.aptrinsic.com/settings/api-keys)",
        "airbyte_secret": true
      }
    },
    "additionalProperties": true
  },
  "jobInfo": {
    "id": "ab34d7ab-d1e4-4480-a529-f59b22471b6d",
    "configType": "get_spec",
    "configId": "Optional.empty",
    "createdAt": 1705523877987,
    "endedAt": 1705523877987,
    "succeeded": true,
    "connectorConfigurationUpdated": false,
    "logs": {
      "logLines": []
    }
  }
}