{
  "sourceDefinitionId": "81ca39dc-4534-4dd2-b848-b0cfd2c11fce",
  "documentationUrl": "https://docs.airbyte.com/integrations/sources/aha",
  "connectionSpecification": {
    "type": "object",
    "title": "Aha Spec",
    "$schema": "http://json-schema.org/draft-07/schema#",
    "required": [
      "api_key",
      "url"
    ],
    "properties": {
      "url": {
        "type": "string",
        "title": "Aha Url Instance",
        "description": "URL"
      },
      "api_key": {
        "type": "string",
        "title": "API Bearer Token",
        "description": "API Key",
        "airbyte_secret": true
      }
    },
    "additionalProperties": true
  },
  "jobInfo": {
    "id": "708f2dfe-6250-477b-967a-1e48afc262d4",
    "configType": "get_spec",
    "configId": "Optional.empty",
    "createdAt": 1705523875952,
    "endedAt": 1705523875952,
    "succeeded": true,
    "connectorConfigurationUpdated": false,
    "logs": {
      "logLines": []
    }
  }
}