{
  "sourceDefinitionId": "239463f5-64bb-4d88-b4bd-18ce673fd572",
  "documentationUrl": "https://docs.airbyte.com/integrations/sources/coinmarketcap",
  "connectionSpecification": {
    "type": "object",
    "title": "Coinmarketcap Spec",
    "$schema": "http://json-schema.org/draft-07/schema#",
    "required": [
      "api_key",
      "data_type"
    ],
    "properties": {
      "api_key": {
        "type": "string",
        "title": "API Key",
        "description": "Your API Key. See <a href=\"https://coinmarketcap.com/api/documentation/v1/#section/Authentication\">here</a>. The token is case sensitive.",
        "airbyte_secret": true
      },
      "symbols": {
        "type": "array",
        "items": {
          "type": "string"
        },
        "title": "Symbol",
        "examples": [
          "AVAX",
          "BTC"
        ],
        "minItems": 1,
        "description": "Cryptocurrency symbols. (only used for quotes stream)"
      },
      "data_type": {
        "enum": [
          "latest",
          "historical"
        ],
        "type": "string",
        "title": "Data type",
        "description": "/latest: Latest market ticker quotes and averages for cryptocurrencies and exchanges. /historical: Intervals of historic market data like OHLCV data or data for use in charting libraries. See <a href=\"https://coinmarketcap.com/api/documentation/v1/#section/Endpoint-Overview\">here</a>."
      }
    },
    "additionalProperties": true
  },
  "jobInfo": {
    "id": "6dfafa00-21cf-429c-8f83-64421bc7232d",
    "configType": "get_spec",
    "configId": "Optional.empty",
    "createdAt": 1705523884729,
    "endedAt": 1705523884729,
    "succeeded": true,
    "connectorConfigurationUpdated": false,
    "logs": {
      "logLines": []
    }
  }
}