{
  "sourceDefinitionId": "6babfc42-c734-4ef6-a817-6eca15f0f9b7",
  "name": "Everhour",
  "dockerRepository": "airbyte/source-everhour",
  "dockerImageTag": "0.1.0",
  "documentationUrl": "https://docs.airbyte.com/integrations/sources/everhour",
  "protocolVersion": "0.2.0",
  "custom": false,
  "supportLevel": "community",
  "releaseStage": "alpha",
  "sourceType": "api"
}